module task-api

go 1.14

require (
	github.com/gin-contrib/cors v1.3.1
	github.com/gin-gonic/gin v1.6.3
	github.com/jinzhu/gorm v1.9.12
	github.com/pusher/pusher-http-go v4.0.1+incompatible
	golang.org/x/crypto v0.0.0-20191205180655-e7c4368fe9dd
)
